286;58
287;14
288;12
288;16
288;15
289;27
290;29
291;19
292;13
293;20
293;21
293;22
294;11
295;18
295;17
296;32
297;26
298;28
299;31
300;30
220;5
301;2
302;2
303;2
304;2
305;2
306;2
307;2
308;2
183;60
183;59
268;46
269;41
269;48
270;42
271;51
272;52
274;8
275;10
276;6
277;7
278;9
279;38
279;53
280;43
281;40
281;50
281;47
281;44
281;49
282;45
283;39
284;37
309;1
310;1
311;1
312;1
258;23
259;25
260;24
313;3
314;3
315;3
316;3
317;3
261;33
262;34
263;35
263;36
318;4
319;57
320;4
321;4
322;4
323;4
324;4
264;55
265;54
266;56
61;61
